﻿<?xml version="1.0" encoding="utf-8"?>
<svg version="1.1" xmlns:xlink="http://www.w3.org/1999/xlink" width="92px" height="72px" xmlns="http://www.w3.org/2000/svg">
  <g transform="matrix(1 0 0 1 -748 -595 )">
    <path d="M 6.56076420604779 71.5316968063105  L 0.584891802824814 52.7443587991841  C 31.1250912449726 43.3035480211471  57.5002214057268 25.1217964834752  76.9113238406018 0.998056731567317  L 91.9701600879032 13.1740000396148  C 69.8235128832631 40.5642995214635  40.1272368256682 60.8548806147477  6.56076420604779 71.5316968063105  Z " fill-rule="nonzero" fill="#795548" stroke="none" transform="matrix(1 0 0 1 748 595 )" />
  </g>
</svg>