﻿<?xml version="1.0" encoding="utf-8"?>
<svg version="1.1" xmlns:xlink="http://www.w3.org/1999/xlink" width="150px" height="150px" xmlns="http://www.w3.org/2000/svg">
  <g transform="matrix(1 0 0 1 -945 -445 )">
    <path d="M 1020 445  C 1062 445  1095 478  1095 520  C 1095 562  1062 595  1020 595  C 978 595  945 562  945 520  C 945 478  978 445  1020 445  Z " fill-rule="nonzero" fill="#ff5722" stroke="none" />
  </g>
</svg>