﻿<?xml version="1.0" encoding="utf-8"?>
<svg version="1.1" xmlns:xlink="http://www.w3.org/1999/xlink" width="50px" height="50px" xmlns="http://www.w3.org/2000/svg">
  <g transform="matrix(1 0 0 1 -9 0 )">
    <path d="M 34 0  C 48 0  59 11  59 25  C 59 39  48 50  34 50  C 20 50  9 39  9 25  C 9 11  20 0  34 0  Z " fill-rule="nonzero" fill="#ffffff" stroke="none" />
  </g>
</svg>