﻿<?xml version="1.0" encoding="utf-8"?>
<svg version="1.1" xmlns:xlink="http://www.w3.org/1999/xlink" width="150px" height="150px" xmlns="http://www.w3.org/2000/svg">
  <g transform="matrix(1 0 0 1 -880 -620 )">
    <path d="M 955 620  C 997 620  1030 653  1030 695  C 1030 737  997 770  955 770  C 913 770  880 737  880 695  C 880 653  913 620  955 620  Z " fill-rule="nonzero" fill="#795548" stroke="none" />
  </g>
</svg>