﻿<?xml version="1.0" encoding="utf-8"?>
<svg version="1.1" xmlns:xlink="http://www.w3.org/1999/xlink" width="56px" height="102px" xmlns="http://www.w3.org/2000/svg">
  <g transform="matrix(1 0 0 1 -824 -507 )">
    <path d="M 15.8185028288156 101.361308508276  L 0.776379374965131 89.1655349653515  C 20.4338334233099 64.8039774391175  32.9796644786328 34.3622208544614  35.5214260964644 0.732710192064076  L 55.4293404925832 2.3217237229544  C 52.535372340496 38.5787279062762  38.7252438641885 73.1084038938285  15.8185028288156 101.361308508276  Z " fill-rule="nonzero" fill="#ff5722" stroke="none" transform="matrix(1 0 0 1 824 507 )" />
  </g>
</svg>