﻿<?xml version="1.0" encoding="utf-8"?>
<svg version="1.1" xmlns:xlink="http://www.w3.org/1999/xlink" width="5px" height="138px" xmlns="http://www.w3.org/2000/svg">
  <g transform="matrix(1 0 0 1 -566 -539 )">
    <path d="M 1 0  L 1 135  " stroke-width="2" stroke="#ffffff" fill="none" transform="matrix(1 0 0 1 567 540 )" />
  </g>
</svg>