﻿<?xml version="1.0" encoding="utf-8"?>
<svg version="1.1" xmlns:xlink="http://www.w3.org/1999/xlink" width="77px" height="80px" xmlns="http://www.w3.org/2000/svg">
  <g transform="matrix(1 0 0 1 -540 -341 )">
    <path d="M 66.8024926011809 0.00576434604096221  L 76.0859034568492 15.3451410874911  C 50.1283141647232 30.3016384590946  28.9727934245745 52.3506404338675  15.0958030930943 79.0156886703663  L 0.136072678214305 71.2744009314237  C 15.3715205879857 41.8325042901734  38.4416081575873 17.1698077048347  66.8024926011809 0.00576434604096221  Z " fill-rule="nonzero" fill="#3f51b5" stroke="none" transform="matrix(1 0 0 1 540 341 )" />
  </g>
</svg>