﻿<?xml version="1.0" encoding="utf-8"?>
<svg version="1.1" xmlns:xlink="http://www.w3.org/1999/xlink" width="150px" height="150px" xmlns="http://www.w3.org/2000/svg">
  <g transform="matrix(1 0 0 1 -918 -270 )">
    <path d="M 993 270  C 1035 270  1068 303  1068 345  C 1068 387  1035 420  993 420  C 951 420  918 387  918 345  C 918 303  951 270  993 270  Z " fill-rule="nonzero" fill="#ff9800" stroke="none" />
  </g>
</svg>